%YAML 1.1
%TAG !u! tag:unity3d.com,2011:
--- !u!1045 &1
EditorBuildSettings:
  m_ObjectHideFlags: 0
  serializedVersion: 2
  m_Scenes:
  - enabled: 1
    path: Assets/_Scenes/MainScene.unity
    guid: 9fc0d4010bbf28b4594072e72b8655ab
  - enabled: 1
    path: Assets/_Scenes/Levels/Level_0_0.unity
    guid: 8cb047ab00c38ce4f8ca5ee4aaa822c3
  - enabled: 1
    path: Assets/_Scenes/Levels/Level_0_1.unity
    guid: caba2d89f8a5ce748bd6de581e33a18a
  m_configObjects: {}
